^F:\VC2013PROJECT\PARENTHESISMATCHING\PARENTHESISMATCHING\MYSTACK.CPP
/c /ZI /nologo /W3 /WX- /sdl /Od /Oy- /D WIN32 /D _DEBUG /D _CONSOLE /D _LIB /D _UNICODE /D UNICODE /Gm /EHsc /RTC1 /MDd /GS /fp:precise /Zc:wchar_t /Zc:forScope /Fo"DEBUG\\" /Fd"DEBUG\VC120.PDB" /Gd /TP /analyze- F:\VC2013PROJECT\PARENTHESISMATCHING\PARENTHESISMATCHING\MYSTACK.CPP
^F:\VC2013PROJECT\PARENTHESISMATCHING\PARENTHESISMATCHING\MYSTACKCPP.CPP
/c /ZI /nologo /W3 /WX- /sdl /Od /Oy- /D WIN32 /D _DEBUG /D _CONSOLE /D _LIB /D _UNICODE /D UNICODE /Gm /EHsc /RTC1 /MDd /GS /fp:precise /Zc:wchar_t /Zc:forScope /Fo"DEBUG\\" /Fd"DEBUG\VC120.PDB" /Gd /TP /analyze- F:\VC2013PROJECT\PARENTHESISMATCHING\PARENTHESISMATCHING\MYSTACKCPP.CPP
^F:\VC2013PROJECT\PARENTHESISMATCHING\PARENTHESISMATCHING\DEMO.CPP
/c /ZI /nologo /W3 /WX- /sdl /Od /Oy- /D WIN32 /D _DEBUG /D _CONSOLE /D _LIB /D _UNICODE /D UNICODE /Gm /EHsc /RTC1 /MDd /GS /fp:precise /Zc:wchar_t /Zc:forScope /Fo"DEBUG\\" /Fd"DEBUG\VC120.PDB" /Gd /TP /analyze- F:\VC2013PROJECT\PARENTHESISMATCHING\PARENTHESISMATCHING\DEMO.CPP
^F:\VC2013PROJECT\PARENTHESISMATCHING\PARENTHESISMATCHING\CORDINATE.CPP
/c /ZI /nologo /W3 /WX- /sdl /Od /Oy- /D WIN32 /D _DEBUG /D _CONSOLE /D _LIB /D _UNICODE /D UNICODE /Gm /EHsc /RTC1 /MDd /GS /fp:precise /Zc:wchar_t /Zc:forScope /Fo"DEBUG\\" /Fd"DEBUG\VC120.PDB" /Gd /TP /analyze- F:\VC2013PROJECT\PARENTHESISMATCHING\PARENTHESISMATCHING\CORDINATE.CPP
^F:\VC2013PROJECT\PARENTHESISMATCHING\PARENTHESISMATCHING\PROGRESSIVECONVERSION.CPP
/c /ZI /nologo /W3 /WX- /sdl /Od /Oy- /D WIN32 /D _DEBUG /D _CONSOLE /D _LIB /D _UNICODE /D UNICODE /Gm /EHsc /RTC1 /MDd /GS /fp:precise /Zc:wchar_t /Zc:forScope /Fo"DEBUG\\" /Fd"DEBUG\VC120.PDB" /Gd /TP /analyze- F:\VC2013PROJECT\PARENTHESISMATCHING\PARENTHESISMATCHING\PROGRESSIVECONVERSION.CPP
^F:\VC2013PROJECT\PARENTHESISMATCHING\PARENTHESISMATCHING\MATCHING.CPP
/c /ZI /nologo /W3 /WX- /sdl /Od /Oy- /D WIN32 /D _DEBUG /D _CONSOLE /D _LIB /D _UNICODE /D UNICODE /Gm /EHsc /RTC1 /MDd /GS /fp:precise /Zc:wchar_t /Zc:forScope /Fo"DEBUG\\" /Fd"DEBUG\VC120.PDB" /Gd /TP /analyze- F:\VC2013PROJECT\PARENTHESISMATCHING\PARENTHESISMATCHING\MATCHING.CPP
